<?xml version="1.0" encoding="UTF-8" standalone="no"?>
<svg
   xmlns:dc="http://purl.org/dc/elements/1.1/"
   xmlns:cc="http://creativecommons.org/ns#"
   xmlns:rdf="http://www.w3.org/1999/02/22-rdf-syntax-ns#"
   xmlns:svg="http://www.w3.org/2000/svg"
   xmlns="http://www.w3.org/2000/svg"
   xmlns:sodipodi="http://sodipodi.sourceforge.net/DTD/sodipodi-0.dtd"
   xmlns:inkscape="http://www.inkscape.org/namespaces/inkscape"
   width="56.382"
   height="55.055199"
   viewBox="0 0 56.381999 55.055198"
   version="1.1"
   id="svg23"
   sodipodi:docname="Vector (1).svg"
   style="fill:none"
   inkscape:version="0.92.3 (2405546, 2018-03-11)">
  <metadata
     id="metadata27">
    <rdf:RDF>
      <cc:Work
         rdf:about="">
        <dc:format>image/svg+xml</dc:format>
        <dc:type
           rdf:resource="http://purl.org/dc/dcmitype/StillImage" />
      </cc:Work>
    </rdf:RDF>
  </metadata>
  <sodipodi:namedview
     pagecolor="#ffffff"
     bordercolor="#666666"
     borderopacity="1"
     objecttolerance="10"
     gridtolerance="10"
     guidetolerance="10"
     inkscape:pageopacity="0"
     inkscape:pageshadow="2"
     inkscape:window-width="1858"
     inkscape:window-height="1057"
     id="namedview25"
     showgrid="false"
     inkscape:zoom="4.2789026"
     inkscape:cx="42.59766"
     inkscape:cy="22.479126"
     inkscape:window-x="-8"
     inkscape:window-y="-8"
     inkscape:window-maximized="1"
     inkscape:current-layer="svg23" />
  <g
     id="g4"
     style="filter:url(#filter0_d)"
     transform="translate(-50,-50.5728)">
    <path
       d="M 78.1909,105.628 C 62.6462,105.628 50,93.2789 50,78.0985 50,62.9219 62.6458,50.5728 78.1909,50.5728 c 15.5448,0 28.1911,12.3491 28.1911,27.5257 0,15.1801 -12.646,27.5295 -28.1911,27.5295 z m 0,-47.79 c -11.4436,0 -20.7507,9.0891 -20.7507,20.2605 0,11.1752 9.3074,20.2639 20.7507,20.2639 11.4437,0 20.7508,-9.0891 20.7508,-20.2639 0,-11.1714 -9.3074,-20.2605 -20.7508,-20.2605 z"
       id="path2"
       inkscape:connector-curvature="0"
       style="fill:#47b247" />
  </g>
  <defs
     id="defs21">
    <filter
       id="filter0_d"
       x="0"
       y="0.57275403"
       width="156.382"
       height="155.05499"
       filterUnits="userSpaceOnUse"
       style="color-interpolation-filters:sRGB">
      <feFlood
         flood-opacity="0"
         result="BackgroundImageFix"
         id="feFlood6" />
      <feColorMatrix
         in="SourceAlpha"
         type="matrix"
         values="0 0 0 0 0 0 0 0 0 0 0 0 0 0 0 0 0 0 127 0"
         id="feColorMatrix8" />
      <feOffset
         id="feOffset10" />
      <feGaussianBlur
         stdDeviation="25"
         id="feGaussianBlur12" />
      <feColorMatrix
         type="matrix"
         values="0 0 0 0 1 0 0 0 0 1 0 0 0 0 1 0 0 0 1 0"
         id="feColorMatrix14" />
      <feBlend
         mode="normal"
         in2="BackgroundImageFix"
         result="effect1_dropShadow"
         id="feBlend16" />
      <feBlend
         mode="normal"
         in="SourceGraphic"
         in2="effect1_dropShadow"
         result="shape"
         id="feBlend18" />
    </filter>
  </defs>
</svg>
